{
  "nr": 3,
  "key_len": 80,
  "input_difference": [1, 1, 0, 0, 0, 1, 0, 0, 0, 0, 0, 0, 0, 0, 0, 0],
  "output_difference": [null, 1, 0, 0, 1, 0, 0, 0, 0, 0, 1, 0, 0, 0, 1, 1],
  "log2_nb_keys": 4,
  "log2_nb_tries_by_key": 4
}