{
  "nr": 6,
  "key_len": 80,
  "input_difference": [0, 0, 0, 0, 0, 0, 1, 12, 0, 0, 0, 0, 0, 0, 0, 0],
  "output_difference": [0, 0, 0, 0, 0, 0, 0, 0, 0, 0, 1, 0, 0, 0, 0, 0],
  "log2_nb_keys": 4,
  "log2_nb_tries_by_key": 6
}